loop	1st_op	       >    2nd_op         RESULT
 3 	 0.0000000000 	 0.0717592835 	1.6435185671
 4 	 0.0000000000 	 0.0099826455 	1.6449652910
 5 	 0.0000000000 	 0.0007303357 	1.6449513435
 6 	 0.0000000000 	 0.0000150800 	1.6449351311
 7 	 0.0000000000 	 0.0000087023 	1.6449339390
 8 	 0.0000000000 	 0.0000006557 	1.6449340582
 9 	 0.0000000000 	 0.0000000596 	1.6449340582
 10 	 0.0000000000 	 0.0000000000 	1.6449340582
 11 	 0.0000000000 	 0.0000000000 	1.6449340582
 12 	 0.0000000000 	 0.0000000000 	1.6449340582
 13 	 0.0000000002 	 0.0000000000 	1.6449340582
1.644934058189 
