loop	1st_op	       >    2nd_op         RESULT
 3 	 0.0000000000 	 0.0717592835 	1.6435185671
 4 	 0.0000000000 	 0.0099821091 	1.6449643373
 5 	 0.0000000000 	 0.0007272363 	1.6449556351
 6 	 0.0000000000 	 0.0000246167 	1.6449151039
 7 	 0.0000000000 	 0.0000574589 	1.6449151039
 8 	 0.0000000000 	 0.0001403689 	1.6449151039
 9 	 0.0000000000 	 0.0003916621 	1.6449151039
 10 	 0.0000000000 	 0.0009515285 	1.6449151039
 11 	 0.0000000000 	 0.0012482405 	1.6449151039
 12 	 0.0000000001 	 0.0048181415 	1.6449151039
 13 	 0.0000000001 	 0.0355706215 	1.6449151039
 14 	 0.0000000022 	 0.1992706060 	1.6449151039
 15 	 0.0000000129 	 0.7616859078 	1.6449151039
 16 	 0.0000186008 	 17.0582237244 	1.6449151039
 17 	 0.0000000571 	 32.5266876221 	1.6449151039
 18 	 0.0000000135 	 16.6239528656 	1.6449151039
 19 	 0.0000000038 	 0.9366037250 	1.6449151039
 20 	 0.0000000080 	 0.5555753112 	1.6449151039
 21 	 0.0000000106 	 0.2971715927 	1.6449151039
 22 	 0.0000000147 	 0.2199038267 	1.6449151039
 23 	 0.0000000220 	 0.2120811939 	1.6449151039
 24 	 0.0000000343 	 0.2373172045 	1.6449151039
 25 	 0.0000000532 	 0.2838195562 	1.6449151039
 26 	 0.0000000766 	 0.3035303354 	1.6449151039
 27 	 0.0000000959 	 0.2079820633 	1.6449151039
 28 	 0.0000000998 	 0.1531019211 	1.6449151039
 29 	 0.0000000883 	 0.2896972895 	1.6449151039
 30 	 0.0000000796 	 0.3369784355 	1.6449151039
 31 	 0.0000000967 	 0.1984460354 	1.6449151039
 32 	 0.0000001537 	 0.3538486958 	1.6449151039
 33 	 0.0000002079 	 0.6317629814 	1.6449151039
 34 	 0.0000001697 	 0.3442648649 	1.6449151039
 35 	 0.0000000957 	 0.2990329266 	1.6449151039
 36 	 0.0000000517 	 0.5747472048 	1.6449151039
 37 	 0.0000000321 	 0.4787290096 	1.6449151039
 38 	 0.0000000240 	 0.3188693523 	1.6449151039
 39 	 0.0000000208 	 0.2165094614 	1.6449151039
 40 	 0.0000000175 	 0.1963381767 	1.6449151039
 41 	 0.0000000076 	 0.2652081251 	1.6449151039
 42 	 0.0000000059 	 0.3386578560 	1.6449151039
 43 	 0.0000000095 	 0.2665974498 	1.6449151039
 44 	 0.0000000071 	 0.0950228572 	1.6449151039
 45 	 0.0000000047 	 0.0297569036 	1.6449151039
 46 	 0.0000000032 	 0.0522436500 	1.6449151039
 47 	 0.0000000023 	 0.0560181737 	1.6449151039
 48 	 0.0000000017 	 0.0513067842 	1.6449151039
 49 	 0.0000000014 	 0.0430669785 	1.6449151039
 50 	 0.0000000013 	 0.0300244093 	1.6449151039
 51 	 0.0000000017 	 0.0123760700 	1.6449151039
 52 	 0.0000000033 	 0.0189619064 	1.6449151039
 53 	 0.0000000075 	 0.0488823652 	1.6449151039
 54 	 0.0000000160 	 0.0449931026 	1.6449151039
 55 	 0.0000000724 	 0.2884364724 	1.6449151039
 56 	 0.0000023593 	 2.6867589951 	1.6449151039
 57 	 0.0000004755 	 3.2317762375 	1.6449151039
 58 	 0.0000003921 	 0.9814905524 	1.6449151039
 59 	 0.0000004518 	 0.5069022179 	1.6449151039
 60 	 0.0000006504 	 0.9121251702 	1.6449151039
 61 	 0.0000012304 	 1.6444867849 	1.6449151039
 62 	 0.0000039136 	 3.9686474800 	1.6449151039
 63 	 0.0001437732 	 35.3405151367 	1.6449151039
 64 	 0.0000086362 	 80.6521301270 	1.6449151039
 65 	 0.0000017224 	 53.5270767212 	1.6449151039
 66 	 0.0000006823 	 6.9414997101 	1.6449151039
 67 	 0.0000003277 	 2.4425191879 	1.6449151039
 68 	 0.0000001691 	 1.3089121580 	1.6449151039
 69 	 0.0000000940 	 0.7562565804 	1.6449151039
 70 	 0.0000000583 	 0.4105918407 	1.6449151039
 71 	 0.0000000406 	 0.2001839876 	1.6449151039
 72 	 0.0000000311 	 0.0885667801 	1.6449151039
 73 	 0.0000000256 	 0.0372804403 	1.6449151039
 74 	 0.0000000224 	 0.0153324604 	1.6449151039
 75 	 0.0000000208 	 0.0050888062 	1.6449151039
 76 	 0.0000000205 	 0.0085756779 	1.6449151039
 77 	 0.0000000216 	 0.0264267921 	1.6449151039
 78 	 0.0000000245 	 0.0532422066 	1.6449151039
 79 	 0.0000000298 	 0.0911153555 	1.6449151039
 80 	 0.0000000386 	 0.1409376860 	1.6449151039
 81 	 0.0000000525 	 0.2009602785 	1.6449151039
 82 	 0.0000000732 	 0.2648468018 	1.6449151039
 83 	 0.0000001025 	 0.3230420351 	1.6449151039
 84 	 0.0000001436 	 0.3740410805 	1.6449151039
 85 	 0.0000002091 	 0.4492260218 	1.6449151039
 86 	 0.0000003542 	 0.6668207645 	1.6449151039
 87 	 0.0000009636 	 1.5653452873 	1.6449151039
 88 	 0.0001220949 	 31.1114711761 	1.6449151039
 89 	 0.0000006503 	 65.2717514038 	1.6449151039
 90 	 0.0000000979 	 36.7585830688 	1.6449151039
 91 	 0.0000000250 	 1.8836925030 	1.6449151039
 92 	 0.0000000059 	 0.6313415766 	1.6449151039
 93 	 0.0000000006 	 0.3032931089 	1.6449151039
 94 	 0.0000000032 	 0.1653150320 	1.6449151039
 95 	 0.0000000042 	 0.0906589627 	1.6449151039
 96 	 0.0000000044 	 0.0416527987 	1.6449151039
 97 	 0.0000000041 	 0.0169450641 	1.6449151039
 98 	 0.0000000034 	 0.0277474523 	1.6449151039
 99 	 0.0000000022 	 0.0557773113 	1.6449151039
1.644915103912 
